{
  "id": "2003241lzgn20jd",
  "appId": "im.novaapp",
  "icon": "build/icons/novachat-icon.png",
  "extraResources": [
    {
      "from": "res/img",
      "to": "img"
    },
    {
      "from": "webapp.asar",
      "to": "webapp.asar"
    }
  ],
  "appFiles": ["package.json", "src/**", "scripts/**", ".hak/hakModules/**"],
  "schemaVersion": 1
}
